…
Explore the distribution of rincome (reported income). What makes the
default bar chart hard to understand? How could you improve the plot?

What is the most common relig in this survey? What’s the most common
partyid?

Which relig does denom (denomination) apply to? How can you find out
with a table? How can you find out with a visualisation?

``` r
gss_cat
```

    ## # A tibble: 21,483 x 9
    ##     year marital     age race  rincome   partyid   relig   denom   tvhours
    ##    <int> <fct>     <int> <fct> <fct>     <fct>     <fct>   <fct>     <int>
    ##  1  2000 Never ma…    26 White $8000 to… Ind,near… Protes… Southe…      12
    ##  2  2000 Divorced     48 White $8000 to… Not str … Protes… Baptis…      NA
    ##  3  2000 Widowed      67 White Not appl… Independ… Protes… No den…       2
    ##  4  2000 Never ma…    39 White Not appl… Ind,near… Orthod… Not ap…       4
    ##  5  2000 Divorced     25 White Not appl… Not str … None    Not ap…       1
    ##  6  2000 Married      25 White $20000 -… Strong d… Protes… Southe…      NA
    ##  7  2000 Never ma…    36 White $25000 o… Not str … Christ… Not ap…       3
    ##  8  2000 Divorced     44 White $7000 to… Ind,near… Protes… Luther…      NA
    ##  9  2000 Married      44 White $25000 o… Not str … Protes… Other         0
    ## 10  2000 Married      47 White $25000 o… Strong r… Protes… Southe…       3
    ## # ... with 21,473 more rows
…
