…
## Coronavirus

Let’s now return to our Coronavirus dataset. Let’s remind ourselves of
it’s
structure

``` r
coronavirus <- read_csv('https://raw.githubusercontent.com/RamiKrispin/coronavirus-csv/master/coronavirus_dataset.csv', col_types = cols(Province.State = col_character()))

coronavirus
```

    ## # A tibble: 65,352 x 7
    ##    Province.State Country.Region   Lat  Long date       cases type     
    ##    <chr>          <chr>          <dbl> <dbl> <date>     <dbl> <chr>    
    ##  1 <NA>           Afghanistan       33    65 2020-01-22     0 confirmed
    ##  2 <NA>           Afghanistan       33    65 2020-01-23     0 confirmed
    ##  3 <NA>           Afghanistan       33    65 2020-01-24     0 confirmed
    ##  4 <NA>           Afghanistan       33    65 2020-01-25     0 confirmed
    ##  5 <NA>           Afghanistan       33    65 2020-01-26     0 confirmed
    ##  6 <NA>           Afghanistan       33    65 2020-01-27     0 confirmed
    ##  7 <NA>           Afghanistan       33    65 2020-01-28     0 confirmed
    ##  8 <NA>           Afghanistan       33    65 2020-01-29     0 confirmed
    ##  9 <NA>           Afghanistan       33    65 2020-01-30     0 confirmed
    ## 10 <NA>           Afghanistan       33    65 2020-01-31     0 confirmed
    ## # … with 65,342 more rows
…
