…
Let’s check if we have negative cases.

``` r
coronavirus %>% 
  filter(cases < 0)
```

    ## # A tibble: 67 x 7
    ##    Province.State     Country.Region   Lat   Long date       cases type     
    ##    <chr>              <chr>          <dbl>  <dbl> <date>     <dbl> <chr>    
    ##  1 <NA>               Guyana           5    -58.8 2020-03-24   -15 confirmed
    ##  2 <NA>               Uruguay        -32.5  -55.8 2020-04-12   -14 confirmed
    ##  3 Alberta            Canada          53.9 -117.  2020-03-25    -1 confirmed
    ##  4 Diamond Princess   Canada           0      0   2020-04-12    -1 confirmed
    ##  5 Guizhou            China           26.8  107.  2020-03-18    -1 confirmed
    ##  6 Manitoba           Canada          53.8  -98.8 2020-04-12    -1 confirmed
    ##  7 New Caledonia      France         -20.9  166.  2020-04-04    -1 confirmed
    ##  8 Northern Territory Australia      -12.5  131.  2020-03-06    -1 confirmed
    ##  9 Ontario            Canada          51.3  -85.3 2020-04-06    -7 confirmed
    ## 10 Queensland         Australia      -28.0  153.  2020-01-31    -1 confirmed
    ## # … with 57 more rows
…
