…
Unite and separate

``` r
coronavirus_sepdate <- coronavirus %>% 
  separate(date, into = c("year", "month", "day"))

coronavirus_sepdate %>% 
  unite("month-day", month, day, sep = "-")
```

    ## # A tibble: 65,352 x 8
    ##    Province.State Country.Region   Lat  Long year  `month-day` cases type     
    ##    <chr>          <chr>          <dbl> <dbl> <chr> <chr>       <dbl> <chr>    
    ##  1 <NA>           Afghanistan       33    65 2020  01-22           0 confirmed
    ##  2 <NA>           Afghanistan       33    65 2020  01-23           0 confirmed
    ##  3 <NA>           Afghanistan       33    65 2020  01-24           0 confirmed
    ##  4 <NA>           Afghanistan       33    65 2020  01-25           0 confirmed
    ##  5 <NA>           Afghanistan       33    65 2020  01-26           0 confirmed
    ##  6 <NA>           Afghanistan       33    65 2020  01-27           0 confirmed
    ##  7 <NA>           Afghanistan       33    65 2020  01-28           0 confirmed
    ##  8 <NA>           Afghanistan       33    65 2020  01-29           0 confirmed
    ##  9 <NA>           Afghanistan       33    65 2020  01-30           0 confirmed
    ## 10 <NA>           Afghanistan       33    65 2020  01-31           0 confirmed
    ## # … with 65,342 more rows
