…
  a_buoy <- read_csv(________________, na=("99", "999", "99.00", "999.0"))
  
  return(___________)

}
```

Here is how it should work:

``` r
#Example output
read_buoy(1987)
```

    ## # A tibble: 7,602 x 16
    ##       YY    MM    DD    hh    WD  WSPD   GST  WVHT   DPD   APD MWD     BAR  ATMP
    ##    <dbl> <dbl> <dbl> <dbl> <dbl> <dbl> <dbl> <dbl> <dbl> <dbl> <lgl> <dbl> <dbl>
    ##  1    87     1     1     0   290     8    10   2.7  11.1   8.6 NA    1024.   2.8
    ##  2    87     1     1     1   290     7     8   2.4  10     8   NA    1024.   2  
    ##  3    87     1     1     2   290     6     8   2.5  11.1   8.3 NA    1024.   1.6
    ##  4    87     1     1     3   300     6     7   2.6  11.1   8.6 NA    1024.   1.3
    ##  5    87     1     1     4   290     5     6   2.7  12.5   8.7 NA    1025.   1  
    ##  6    87     1     1     5   340     6     7   2.4  14.3   8.4 NA    1025    0.7
    ##  7    87     1     1     6    10     5     6   2.4  12.5   8.8 NA    1026.   0.7
    ##  8    87     1     1     7    10     4     6   2.6  12.5   9.5 NA    1027.   0.5
    ##  9    87     1     1     8    20     7     8   2.5  12.5   9.2 NA    1026.   0.4
    ## 10    87     1     1     9    20     5     6   2.5  12.5   9.1 NA    1027.   0.4
    ## # … with 7,592 more rows, and 3 more variables: WTMP <dbl>, DEWP <lgl>,
    ## #   VIS <lgl>

<br>

**4.4** Amend the process\_buoy function to allow for a variable buoy number (currently we are using data from buoy 44013, but there are many other numbers/names that could be used!), directory location of the file, and year.

Here is how it should work:

``` r
#Example output
read_buoy(path="../datasets/buoydata/", buoy=44013, year=1987)
```

    ## # A tibble: 7,602 x 16
    ##       YY    MM    DD    hh    WD  WSPD   GST  WVHT   DPD   APD MWD     BAR  ATMP
    ##    <dbl> <dbl> <dbl> <dbl> <dbl> <dbl> <dbl> <dbl> <dbl> <dbl> <lgl> <dbl> <dbl>
    ##  1    87     1     1     0   290     8    10   2.7  11.1   8.6 NA    1024.   2.8
    ##  2    87     1     1     1   290     7     8   2.4  10     8   NA    1024.   2  
    ##  3    87     1     1     2   290     6     8   2.5  11.1   8.3 NA    1024.   1.6
    ##  4    87     1     1     3   300     6     7   2.6  11.1   8.6 NA    1024.   1.3
    ##  5    87     1     1     4   290     5     6   2.7  12.5   8.7 NA    1025.   1  
    ##  6    87     1     1     5   340     6     7   2.4  14.3   8.4 NA    1025    0.7
    ##  7    87     1     1     6    10     5     6   2.4  12.5   8.8 NA    1026.   0.7
    ##  8    87     1     1     7    10     4     6   2.6  12.5   9.5 NA    1027.   0.5
    ##  9    87     1     1     8    20     7     8   2.5  12.5   9.2 NA    1026.   0.4
    ## 10    87     1     1     9    20     5     6   2.5  12.5   9.1 NA    1027.   0.4
    ## # … with 7,592 more rows, and 3 more variables: WTMP <dbl>, DEWP <lgl>,
    ## #   VIS <lgl>
…
    ## # A tibble: 365 x 6
    ##     Year Month   Day Wave_Height_mean Temperature_c_mean DayInYear 
    ##    <dbl> <dbl> <dbl>            <dbl>              <dbl> <date>    
    ##  1    90     1     1            0.929               3.18 1990-01-01
    ##  2    90     1     2            0.592               3.21 1990-01-02
    ##  3    90     1     3            0.242               2.96 1990-01-03
    ##  4    90     1     4            0.242               2.72 1990-01-04
    ##  5    90     1     5            0.271               2.65 1990-01-05
    ##  6    90     1     6            0.317               2.65 1990-01-06
    ##  7    90     1     7            0.262               2.85 1990-01-07
    ##  8    90     1     8            0.221               2.59 1990-01-08
    ##  9    90     1     9            0.357               2.52 1990-01-09
    ## 10    90     1    10            0.912               2.58 1990-01-10
    ## # … with 355 more rows
…
    ## # A tibble: 364 x 6
    ##     Year Month   Day Wave_Height_mean Temperature_c_mean DayInYear 
    ##    <dbl> <dbl> <dbl>            <dbl>              <dbl> <date>    
    ##  1    98     1     1            0.939               5.67 1998-01-01
    ##  2    98     1     2            0.700               5.88 1998-01-02
    ##  3    98     1     3            0.4                 5.75 1998-01-03
    ##  4    98     1     4            0.336               5.65 1998-01-04
    ##  5    98     1     5            1.09                5.63 1998-01-05
    ##  6    98     1     6            0.545               5.59 1998-01-06
    ##  7    98     1     7            1.09                5.47 1998-01-07
    ##  8    98     1     8            1.76                5.55 1998-01-08
    ##  9    98     1     9            1.89                5.54 1998-01-09
    ## 10    98     1    10            1.18                5.45 1998-01-10
    ## # … with 354 more rows
…
    ## # A tibble: 348 x 6
    ##     Year Month   Day Wave_Height_mean Temperature_c_mean DayInYear 
    ##    <dbl> <dbl> <dbl>            <dbl>              <dbl> <date>    
    ##  1  1999     1     1            0.782               5.63 1999-01-01
    ##  2  1999     1     2            1.03                5.47 1999-01-02
    ##  3  1999     1     3            1.40                5.19 1999-01-03
    ##  4  1999     1     4            1.74                5.11 1999-01-04
    ##  5  1999     1     5            0.875               4.90 1999-01-05
    ##  6  1999     1     6            0.515               4.98 1999-01-06
    ##  7  1999     1     7            0.832               4.92 1999-01-07
    ##  8  1999     1     8            0.536               4.78 1999-01-08
    ##  9  1999     1     9            1.33                4.79 1999-01-09
    ## 10  1999     1    10            1.02                4.51 1999-01-10
    ## # … with 338 more rows
…
    ## # A tibble: 365 x 6
    ##     Year Month Day   Wave_Height_mean Temperature_c_mean DayInYear 
    ##    <dbl> <chr> <chr>            <dbl>              <dbl> <date>    
    ##  1  2007 01    01               1.00                7.22 2007-01-01
    ##  2  2007 01    02               1.09                7.38 2007-01-02
    ##  3  2007 01    03               0.671               7.24 2007-01-03
    ##  4  2007 01    04               0.500               7.33 2007-01-04
    ##  5  2007 01    05               0.612               7.43 2007-01-05
    ##  6  2007 01    06               0.554               7.72 2007-01-06
    ##  7  2007 01    07               0.777               7.48 2007-01-07
    ##  8  2007 01    08               1.34                7.39 2007-01-08
    ##  9  2007 01    09               1.07                7.05 2007-01-09
    ## 10  2007 01    10               0.840               6.88 2007-01-10
    ## # … with 355 more rows
