Lesson 10: Tidy Data
…
Using the lotr_tidy data frame (that we generated above) as input.

Reflect on the process of writing this code and on the code itself. Which is easier to write? Easier to read?

Write R code to compute the total number of words spoken in each film. Do this by copying and modifying your own code for totalling words by race. Which approach is easier to modify and repurpose – the one based on multiple, untidy data frames or the tidy data?

Applying this to our Coronavirus dataset

Let’s now return to our Coronavirus dataset. Let’s remind ourselves of it’s structure

coronavirus <- read_csv('https://raw.githubusercontent.com/RamiKrispin/coronavirus/master/csv/coronavirus.csv', col_types = cols(province = col_character()))

coronavirus

## # A tibble: 223,062 x 7
##    date       province country       lat  long type      cases
##    <date>     <chr>    <chr>       <dbl> <dbl> <chr>     <dbl>
##  1 2020-01-22 <NA>     Afghanistan  33.9  67.7 confirmed     0
##  2 2020-01-23 <NA>     Afghanistan  33.9  67.7 confirmed     0
##  3 2020-01-24 <NA>     Afghanistan  33.9  67.7 confirmed     0
##  4 2020-01-25 <NA>     Afghanistan  33.9  67.7 confirmed     0
##  5 2020-01-26 <NA>     Afghanistan  33.9  67.7 confirmed     0
##  6 2020-01-27 <NA>     Afghanistan  33.9  67.7 confirmed     0
##  7 2020-01-28 <NA>     Afghanistan  33.9  67.7 confirmed     0
##  8 2020-01-29 <NA>     Afghanistan  33.9  67.7 confirmed     0
##  9 2020-01-30 <NA>     Afghanistan  33.9  67.7 confirmed     0
## 10 2020-01-31 <NA>     Afghanistan  33.9  67.7 confirmed     0
## # … with 223,052 more rows
…
