Lesson 13: Factors
…
If you ever need to access the set of valid levels directly, you can do so with levels():

levels(f2)

## [1] "Dec" "Apr" "Jan" "Mar"

General Social Survey

As an example, we’re going to focus on forcats::gss_cat. It’s a sample of data from the General Social Survey, which is a long-running US survey conducted by the independent research organization NORC at the University of Chicago. The survey has thousands of questions, so in gss_cat we’ve selected a handful that will illustrate some common challenges you’ll encounter when working with factors.

gss_cat

## # A tibble: 21,483 x 9
##     year marital     age race  rincome    partyid     relig     denom    tvhours
##    <int> <fct>     <int> <fct> <fct>      <fct>       <fct>     <fct>      <int>
##  1  2000 Never ma…    26 White $8000 to … Ind,near r… Protesta… Souther…      12
##  2  2000 Divorced     48 White $8000 to … Not str re… Protesta… Baptist…      NA
##  3  2000 Widowed      67 White Not appli… Independent Protesta… No deno…       2
##  4  2000 Never ma…    39 White Not appli… Ind,near r… Orthodox… Not app…       4
##  5  2000 Divorced     25 White Not appli… Not str de… None      Not app…       1
##  6  2000 Married      25 White $20000 - … Strong dem… Protesta… Souther…      NA
##  7  2000 Never ma…    36 White $25000 or… Not str re… Christian Not app…       3
##  8  2000 Divorced     44 White $7000 to … Ind,near d… Protesta… Luthera…      NA
##  9  2000 Married      44 White $25000 or… Not str de… Protesta… Other          0
## 10  2000 Married      47 White $25000 or… Strong rep… Protesta… Souther…       3
## # … with 21,473 more rows
…
