Lesson 13: Data import, export, and conversion between data types
…
## Warning: 1000 parsing failures.
##  row col           expected     actual                                                                                         file
## 1001   y 1/0/T/F/TRUE/FALSE 2015-01-16 '/Library/Frameworks/R.framework/Versions/3.6/Resources/library/readr/extdata/challenge.csv'
## 1002   y 1/0/T/F/TRUE/FALSE 2018-05-18 '/Library/Frameworks/R.framework/Versions/3.6/Resources/library/readr/extdata/challenge.csv'
## 1003   y 1/0/T/F/TRUE/FALSE 2015-09-05 '/Library/Frameworks/R.framework/Versions/3.6/Resources/library/readr/extdata/challenge.csv'
## 1004   y 1/0/T/F/TRUE/FALSE 2012-11-28 '/Library/Frameworks/R.framework/Versions/3.6/Resources/library/readr/extdata/challenge.csv'
## 1005   y 1/0/T/F/TRUE/FALSE 2020-01-13 '/Library/Frameworks/R.framework/Versions/3.6/Resources/library/readr/extdata/challenge.csv'
## .... ... .................. .......... ............................................................................................
## See problems(...) for more details.

There are two printed outputs: the column specification generated by looking at the first 1000 rows, and the first five parsing failures. It’s always a good idea to explicitly pull out the problems(), so you can explore them in more depth:

problems(challenge)

## # A tibble: 1,000 x 5
##      row col   expected       actual   file                                     
##    <int> <chr> <chr>          <chr>    <chr>                                    
##  1  1001 y     1/0/T/F/TRUE/… 2015-01… '/Library/Frameworks/R.framework/Version…
##  2  1002 y     1/0/T/F/TRUE/… 2018-05… '/Library/Frameworks/R.framework/Version…
##  3  1003 y     1/0/T/F/TRUE/… 2015-09… '/Library/Frameworks/R.framework/Version…
##  4  1004 y     1/0/T/F/TRUE/… 2012-11… '/Library/Frameworks/R.framework/Version…
##  5  1005 y     1/0/T/F/TRUE/… 2020-01… '/Library/Frameworks/R.framework/Version…
##  6  1006 y     1/0/T/F/TRUE/… 2016-04… '/Library/Frameworks/R.framework/Version…
##  7  1007 y     1/0/T/F/TRUE/… 2011-05… '/Library/Frameworks/R.framework/Version…
##  8  1008 y     1/0/T/F/TRUE/… 2020-07… '/Library/Frameworks/R.framework/Version…
##  9  1009 y     1/0/T/F/TRUE/… 2011-04… '/Library/Frameworks/R.framework/Version…
## 10  1010 y     1/0/T/F/TRUE/… 2010-05… '/Library/Frameworks/R.framework/Version…
## # … with 990 more rows
…
