Lesson 6: Plotting with ggplot, part 1
…
Inspect the data frame

Before making any kind of graph, we will always need to know our data first. In R, data tables are most often stored as an object of the class data.frame. There are a few different ways to inspect these data tables.

Directly type the name of the data frame

This method works well if you run it from RMardown. If ran on R Console or if knitted on RMardkown, it can still do a good job with small data frames, or with data frames that are of the class tibble. (We will learn more about tibble later in class. For now, just think of it as an upgraded type of data frame.)

But, if you do it with a larger, non-tibble data frame, it will attempt print the entire data frame on your console or your knitted output, making the result very difficult to read.

## demo (compare and contrast regular data frame and tibble)
mpg

## # A tibble: 234 x 11
##    manufacturer model    displ  year   cyl trans   drv     cty   hwy fl    class
##    <chr>        <chr>    <dbl> <int> <int> <chr>   <chr> <int> <int> <chr> <chr>
##  1 audi         a4         1.8  1999     4 auto(l… f        18    29 p     comp…
##  2 audi         a4         1.8  1999     4 manual… f        21    29 p     comp…
##  3 audi         a4         2    2008     4 manual… f        20    31 p     comp…
##  4 audi         a4         2    2008     4 auto(a… f        21    30 p     comp…
##  5 audi         a4         2.8  1999     6 auto(l… f        16    26 p     comp…
##  6 audi         a4         2.8  1999     6 manual… f        18    26 p     comp…
##  7 audi         a4         3.1  2008     6 auto(a… f        18    27 p     comp…
##  8 audi         a4 quat…   1.8  1999     4 manual… 4        18    26 p     comp…
##  9 audi         a4 quat…   1.8  1999     4 auto(l… 4        16    25 p     comp…
## 10 audi         a4 quat…   2    2008     4 manual… 4        20    28 p     comp…
## # … with 224 more rows
…
