Lesson 9: ggplot part 2
…
Let’s check if we have negative cases.

coronavirus %>% 
  filter(cases < 0)

## # A tibble: 119 x 7
##    Province.State Country.Region   Lat   Long date       cases type     
##    <chr>          <chr>          <dbl>  <dbl> <date>     <dbl> <chr>    
##  1 <NA>           Ecuador        -1.83 -78.2  2020-05-07 -1583 confirmed
##  2 <NA>           Ecuador        -1.83 -78.2  2020-05-08 -1480 confirmed
##  3 <NA>           Ecuador        -1.83 -78.2  2020-05-11   -50 confirmed
##  4 <NA>           France         46.2    2.21 2020-04-18   -17 confirmed
##  5 <NA>           France         46.2    2.21 2020-04-22 -2206 confirmed
##  6 <NA>           France         46.2    2.21 2020-04-29 -2512 confirmed
##  7 <NA>           France         46.2    2.21 2020-05-13  -226 confirmed
##  8 <NA>           Guyana          5    -58.8  2020-03-24   -15 confirmed
##  9 <NA>           Honduras       15.2  -86.2  2020-05-12   -20 confirmed
## 10 <NA>           Japan          36    138    2020-04-28  -417 confirmed
## # … with 109 more rows
…
