…
<br>
 
Let's check if we have negative cases.

```r
coronavirus %>% 
  filter(cases < 0)
```

```
## # A tibble: 372 x 7
##    date       province country               lat   long type      cases
##    <date>     <chr>    <chr>               <dbl>  <dbl> <chr>     <dbl>
##  1 2020-07-03 <NA>     Antigua and Barbuda 17.1  -61.8  confirmed    -1
##  2 2020-05-19 <NA>     Benin                9.31   2.32 confirmed  -209
##  3 2020-08-27 <NA>     Cyprus              35.1   33.4  confirmed   -17
##  4 2020-05-07 <NA>     Ecuador             -1.83 -78.2  confirmed -1583
##  5 2020-05-08 <NA>     Ecuador             -1.83 -78.2  confirmed -1480
##  6 2020-05-11 <NA>     Ecuador             -1.83 -78.2  confirmed   -50
##  7 2020-09-07 <NA>     Ecuador             -1.83 -78.2  confirmed -7953
##  8 2020-07-15 <NA>     Finland             61.9   25.7  confirmed    -5
##  9 2020-07-16 <NA>     Finland             61.9   25.7  confirmed    -3
## 10 2020-04-18 <NA>     France              46.2    2.21 confirmed   -17
## # … with 362 more rows
```
…
